…
## 1 Data

### 1.1 Importation

I import the data with the package **readxl**, which manages Excel files
very well (comma, percentages) as well as missing values, with the
function `read_xlsx()`.

``` r
library(readxl)
(workshop1 <- read_xlsx("data.xlsx", sheet = "workshop1", skip = 4))
```

    ## # A tibble: 111 x 20
    ##    `TRADE DATE`        `NASDAQOMX/NQUS~ `NASDAQOMX/NQUS~ `NASDAQOMX/NQUS~
    ##    <dttm>                         <dbl>            <dbl>            <dbl>
    ##  1 2011-06-30 00:00:00         -0.0191          -0.00444         -0.0239 
    ##  2 2011-07-31 00:00:00          0.00813         -0.0304          -0.0135 
    ##  3 2011-08-31 00:00:00         -0.102           -0.0805          -0.0875 
    ##  4 2011-09-30 00:00:00         -0.123           -0.163           -0.232  
    ##  5 2011-10-31 00:00:00          0.169            0.176            0.209  
    ##  6 2011-11-30 00:00:00          0.0181          -0.00764         -0.00442
    ##  7 2011-12-31 00:00:00         -0.00375         -0.00251         -0.0836 
    ##  8 2012-01-31 00:00:00          0.00943          0.107            0.110  
    ##  9 2012-02-29 00:00:00          0.0611           0.0175          -0.0340 
    ## 10 2012-03-31 00:00:00         -0.0289           0.0230          -0.0569 
    ## # ... with 101 more rows, and 16 more variables: `NASDAQOMX/NQUSB2300/INDEX
    ## #   VALUE` <dbl>, `NASDAQOMX/NQUSB2700/INDEX VALUE` <dbl>,
    ## #   `NASDAQOMX/NQUSB3300/INDEX VALUE` <dbl>, `NASDAQOMX/NQUSB3500/INDEX
    ## #   VALUE` <dbl>, `NASDAQOMX/NQUSB3700/INDEX VALUE` <dbl>,
    ## #   `NASDAQOMX/NQUSB4000/INDEX VALUE` <dbl>, `NASDAQOMX/NQUSB5300/INDEX
    ## #   VALUE` <dbl>, `NASDAQOMX/NQUSB5500/INDEX VALUE` <dbl>,
    ## #   `NASDAQOMX/NQUSB5700/INDEX VALUE` <dbl>, `NASDAQOMX/NQUSB6000/INDEX
    ## #   VALUE` <dbl>, `NASDAQOMX/NQUSB7000/INDEX VALUE` <dbl>,
    ## #   `NASDAQOMX/NQUSB8300/INDEX VALUE` <dbl>, `NASDAQOMX/NQUSB8500/INDEX
…
I can confirm this relation between the two steps with the choice of
monthly observations. Indeed, monthly returns are nearer to gaussian
data than weekly and daily data: they present less extreme variations
(see next section on data viz). As theoretical framework of H. Markowitz
behaves well with gaussian data, this choice is relevant.

To simplify our communication of results, I focus on the 4 first
variables.

``` r
(fin_return_4first_Supersectors <- fin_return %>% select(1:4))
```

    ## # A tibble: 111 x 4
    ##    `NASDAQOMX/NQUSB00~ `NASDAQOMX/NQUSB13~ `NASDAQOMX/NQUSB1~ `NASDAQOMX/NQUSB2~
    ##                  <dbl>               <dbl>              <dbl>              <dbl>
    ##  1            -0.0191             -0.00444           -0.0239             -0.0480
    ##  2             0.00813            -0.0304            -0.0135             -0.0665
    ##  3            -0.102              -0.0805            -0.0875             -0.0684
    ##  4            -0.123              -0.163             -0.232              -0.138 
    ##  5             0.169               0.176              0.209               0.180 
    ##  6             0.0181             -0.00764           -0.00442             0.0314
    ##  7            -0.00375            -0.00251           -0.0836              0.0154
    ##  8             0.00943             0.107              0.110               0.0855
    ##  9             0.0611              0.0175            -0.0340              0.0377
    ## 10            -0.0289              0.0230            -0.0569              0.0295
    ## # ... with 101 more rows
…
